id,name,description,start_date,end_date
1,Flowdesk,Project description here:,2017-02-21,2019-09-08
2,Viva,Project description here:,2017-06-01,2019-04-24
3,Cardguard,Project description here:,2016-07-18,2018-01-23
4,Cardify,Project description here:,2016-06-03,2018-11-18
5,Cookley,Project description here:,2017-10-11,2018-09-01
6,Alphazap,Project description here:,2016-11-13,2018-11-02
7,Stim,Project description here:,2017-03-23,2018-01-03
8,Keylex,Project description here:,2016-03-18,2018-04-11
9,Fintone,Project description here:,2016-11-09,2018-09-20
10,It,Project description here:,2016-12-05,2019-10-11
11,Andalax,Project description here:,2017-02-24,2019-07-05
12,Span,Project description here:,2017-09-09,2019-02-12
13,Job,Project description here:,2016-11-27,2018-10-18
14,Aerified,Project description here:,2016-06-27,2019-04-06
15,Holdlamis,Project description here:,2017-03-30,2018-06-02
16,Tampflex,Project description here:,2016-12-26,2019-11-03
17,Y-find,Project description here:,2017-02-01,2018-06-14
18,Tresom,Project description here:,2017-01-22,2019-07-24
19,Voyatouch,Project description here:,2016-05-11,2018-11-25
20,Subin,Project description here:,2016-09-07,2018-02-05
21,Hatity,Project description here:,2016-10-26,2019-07-24
22,Ventosanzap,Project description here:,2016-12-28,2018-01-12
23,Home Ing,Project description here:,2016-11-27,2019-01-24
24,Mat Lam Tam,Project description here:,2017-09-14,2019-03-23
25,Treeflex,Project description here:,2017-10-23,2018-02-28
26,Bytecard,Project description here:,2016-06-07,2018-06-22
27,Fix San,Project description here:,2016-01-04,2018-04-15
28,Redhold,Project description here:,2016-11-08,2018-02-28
29,Zathin,Project description here:,2016-01-17,2018-09-27
30,Stronghold,Project description here:,2017-09-18,2019-06-25
31,Y-Solowarm,Project description here:,2017-09-26,2018-03-03
32,Pannier,Project description here:,2017-06-09,2018-01-03
33,Zoolab,Project description here:,2016-02-18,2019-11-07
34,Vagram,Project description here:,2016-01-04,2018-03-22
35,Regrant,Project description here:,2017-08-29,2018-11-20
36,Temp,Project description here:,2016-01-09,2018-02-28
37,Lotstring,Project description here:,2017-04-16,2018-08-04
38,Asoka,Project description here:,2017-11-05,2018-04-25
39,Flexidy,Project description here:,2017-04-20,2019-02-22
40,Greenlam,Project description here:,2016-04-27,2019-01-24
41,Daltfresh,Project description here:,2016-09-25,2019-09-15
42,Tempsoft,Project description here:,2017-09-07,2018-12-06
43,Transcof,Project description here:,2017-09-20,2019-06-07
44,Matsoft,Project description here:,2017-11-10,2019-11-08
45,Wrapsafe,Project description here:,2016-06-30,2019-04-24
46,Alpha,Project description here:,2016-07-14,2018-02-23
47,Duobam,Project description here:,2016-05-09,2019-07-14
48,Zontrax,Project description here:,2016-06-30,2018-12-25
49,Sonair,Project description here:,2016-03-02,2018-06-18
50,Bamity,Project description here:,2016-12-03,2019-11-01
51,Ronstring,Project description here:,2017-04-16,2019-02-24
52,Stringtough,Project description here:,2017-07-05,2019-09-22
53,Konklux,Project description here:,2016-11-02,2019-12-12
54,Konklab,Project description here:,2016-04-03,2018-12-03
55,Biodex,Project description here:,2016-02-19,2018-05-02
56,Zaam-Dox,Project description here:,2017-03-14,2019-04-13
57,Domainer,Project description here:,2016-01-11,2018-09-28
58,Otcom,Project description here:,2017-02-25,2019-09-11
59,Opela,Project description here:,2016-12-21,2018-12-20
60,Zamit,Project description here:,2017-09-08,2018-03-17
61,Veribet,Project description here:,2016-07-31,2018-03-22
62,Tres-Zap,Project description here:,2017-04-02,2018-12-30
63,Sonsing,Project description here:,2017-03-27,2018-09-28
64,Toughjoyfax,Project description here:,2016-08-22,2019-02-22
65,Prodder,Project description here:,2017-01-15,2019-05-01
66,Bigtax,Project description here:,2017-09-05,2019-01-18
67,Quo Lux,Project description here:,2016-06-18,2019-07-11
68,Tin,Project description here:,2017-05-24,2018-02-20
69,Kanlam,Project description here:,2016-01-25,2019-10-07
70,Bitchip,Project description here:,2016-07-13,2019-10-12
71,Fixflex,Project description here:,2016-07-22,2018-03-01
72,Voltsillam,Project description here:,2016-07-29,2018-01-11
73,Solarbreeze,Project description here:,2016-04-24,2018-01-10
74,Lotlux,Project description here:,2017-04-23,2018-12-02
75,Rank,Project description here:,2017-07-12,2019-10-31
76,Sub-Ex,Project description here:,2016-02-14,2018-12-20
77,Gembucket,Project description here:,2016-08-26,2018-08-17
78,Latlux,Project description here:,2016-09-06,2018-03-19
79,Bitwolf,Project description here:,2016-04-10,2019-09-06
80,Trippledex,Project description here:,2016-09-29,2018-05-26
81,Namfix,Project description here:,2016-01-03,2018-08-12
82,Overhold,Project description here:,2017-06-28,2018-02-18
83,Current Bench,Project description here:,2017-10-23,2019-12-14
